{
  "project_info": {
    "project_number": "301406754464",
    "firebase_url": "https://brew-crew-6d119.firebaseio.com",
    "project_id": "brew-crew-6d119",
    "storage_bucket": "brew-crew-6d119.appspot.com"
  },
  "client": [
    {
      "client_info": {
        "mobilesdk_app_id": "1:301406754464:android:9e87c34d8c7b54bc721bc5",
        "android_client_info": {
          "package_name": "com.example.brew_crew"
        }
      },
      "oauth_client": [
        {
          "client_id": "301406754464-bjgiqa7701ifu1v73qi3in2qhicu0r51.apps.googleusercontent.com",
          "client_type": 3
        }
      ],
      "api_key": [
        {
          "current_key": "AIzaSyC7fwCaRRSofDuCrPxz0gQBR4qXs5sIYmM"
        }
      ],
      "services": {
        "appinvite_service": {
          "other_platform_oauth_client": [
            {
              "client_id": "301406754464-bjgiqa7701ifu1v73qi3in2qhicu0r51.apps.googleusercontent.com",
              "client_type": 3
            }
          ]
        }
      }
    }
  ],
  "configuration_version": "1"
}